…
`aulib` contains metadata documentation as data.

### `geo_on_er_cd_names`

A subset of [data from Statistics
Canada](https://www12.statcan.gc.ca/census-recensement/2021/geo/aip-pia/attribute-attribs/index2021-eng.cfm?year=2021)
containing economic regions and census divisions of IES catchment areas
(`cduid`).

``` r
geo_on_er_cd_names
```

    # A tibble: 50 × 9
       est_region        est_r…¹ cdname cduid cddgu…² cdtype ernam…³ eruid…⁴ erdgu…⁵
       <chr>             <chr>   <chr>  <chr> <chr>   <chr>  <chr>   <chr>   <chr>  
     1 Ottawa            10      Storm… 3501  2021A0… UC     Ottawa  3510    2021S0…
     2 Ottawa            10      Presc… 3502  2021A0… UC     Ottawa  3510    2021S0…
     3 Ottawa            10      Ottawa 3506  2021A0… CDR    Ottawa  3510    2021S0…
     4 Ottawa            10      Leeds… 3507  2021A0… UC     Ottawa  3510    2021S0…
     5 Ottawa            10      Lanark 3509  2021A0… CTY    Ottawa  3510    2021S0…
     6 Kingston--Pembro… 4       Front… 3510  2021A0… CTY    Kingst… 3515    2021S0…
     7 Kingston--Pembro… 4       Lenno… 3511  2021A0… CTY    Kingst… 3515    2021S0…
     8 Kingston--Pembro… 4       Hasti… 3512  2021A0… CTY    Kingst… 3515    2021S0…
     9 Kingston--Pembro… 4       Princ… 3513  2021A0… CDR    Kingst… 3515    2021S0…
    10 Muskoka--Kawarth… 7       North… 3514  2021A0… CTY    Muskok… 3520    2021S0…
    # … with 40 more rows, and abbreviated variable names ¹​est_region_id,
    #   ²​cddguid_dridugd, ³​ername_renom, ⁴​eruid_reidu, ⁵​erdguid_reidugd
